{
  "cache_id": "sample-123456",
  "created_at": "2025-05-30T23:15:00Z",
  "expires_at": "2025-06-29T23:15:00Z",
  "content_type": "application/json",
  "size": 1024,
  "data": {
    "type": "sample",
    "results": [
      {
        "id": "result-1",
        "score": 0.95,
        "relevance": "high"
      },
      {
        "id": "result-2",
        "score": 0.87,
        "relevance": "medium"
      },
      {
        "id": "result-3",
        "score": 0.76,
        "relevance": "medium"
      },
      {
        "id": "result-4",
        "score": 0.65,
        "relevance": "low"
      }
    ],
    "pagination": {
      "page": 1,
      "total_pages": 5,
      "per_page": 4,
      "total_items": 20
    }
  },
  "metadata": {
    "source": "sample-query",
    "hash": "a1b2c3d4e5f6g7h8i9j0",
    "compression": "none"
  }
} 